{
    "displayName": "shared",
    "preset": "ts-jest",
    "moduleFileExtensions": ["ts", "tsx", "js", "jsx", "json", "node"],
    "collectCoverageFrom": [
        "**/*.{ts,tsx}",
        "!**/*.d.ts",
        "!**/config/**",
        "!**/webpack.*.ts",
        "!**/*mocks.ts"
    ],
    "coverageDirectory": "../../coverage/shared"
}
